dump.vcd
$version Generated by VerilatedVcd $end
$timescale 1ps $end
 $scope module $rootio $end
 $upscope $end
 $scope module riscv_pkg $end
  $var wire 32 q XLEN [31:0] $end
  $var wire 32 r PLEN [31:0] $end
  $var wire 7 s OpcodeLoad [6:0] $end
  $var wire 7 t OpcodeLoadFp [6:0] $end
  $var wire 7 u OpcodeCustom0 [6:0] $end
  $var wire 7 v OpcodeMiscMem [6:0] $end
  $var wire 7 w OpcodeOpImm [6:0] $end
  $var wire 7 x OpcodeAuipc [6:0] $end
  $var wire 7 y OpcodeOpImm32 [6:0] $end
  $var wire 7 z OpcodeStore [6:0] $end
  $var wire 7 { OpcodeStoreFp [6:0] $end
  $var wire 7 | OpcodeCustom1 [6:0] $end
  $var wire 7 } OpcodeAmo [6:0] $end
  $var wire 7 ~ OpcodeOp [6:0] $end
  $var wire 7 !! OpcodeLui [6:0] $end
  $var wire 7 "! OpcodeOp32 [6:0] $end
  $var wire 7 #! OpcodeMadd [6:0] $end
  $var wire 7 $! OpcodeMsub [6:0] $end
  $var wire 7 %! OpcodeNmsub [6:0] $end
  $var wire 7 &! OpcodeNmadd [6:0] $end
  $var wire 7 '! OpcodeOpFp [6:0] $end
  $var wire 7 (! OpcodeVec [6:0] $end
  $var wire 7 )! OpcodeCustom2 [6:0] $end
  $var wire 7 *! OpcodeBranch [6:0] $end
  $var wire 7 +! OpcodeJalr [6:0] $end
  $var wire 7 ,! OpcodeRsrvd2 [6:0] $end
  $var wire 7 -! OpcodeJal [6:0] $end
  $var wire 7 .! OpcodeSystem [6:0] $end
  $var wire 7 /! OpcodeRsrvd3 [6:0] $end
  $var wire 7 0! OpcodeCustom3 [6:0] $end
  $var wire 2 1! OpcodeC0 [1:0] $end
  $var wire 3 2! OpcodeC0Addi4spn [2:0] $end
  $var wire 3 3! OpcodeC0Fld [2:0] $end
  $var wire 3 4! OpcodeC0Lw [2:0] $end
  $var wire 3 5! OpcodeC0Ld [2:0] $end
  $var wire 3 6! OpcodeC0Zcb [2:0] $end
  $var wire 3 7! OpcodeC0Fsd [2:0] $end
  $var wire 3 8! OpcodeC0Sw [2:0] $end
  $var wire 3 9! OpcodeC0Sd [2:0] $end
  $var wire 2 :! OpcodeC1 [1:0] $end
  $var wire 3 2! OpcodeC1Addi [2:0] $end
  $var wire 3 3! OpcodeC1Addiw [2:0] $end
  $var wire 3 3! OpcodeC1Jal [2:0] $end
  $var wire 3 4! OpcodeC1Li [2:0] $end
  $var wire 3 5! OpcodeC1LuiAddi16sp [2:0] $end
  $var wire 3 6! OpcodeC1MiscAlu [2:0] $end
  $var wire 3 7! OpcodeC1J [2:0] $end
  $var wire 3 8! OpcodeC1Beqz [2:0] $end
  $var wire 3 9! OpcodeC1Bnez [2:0] $end
  $var wire 2 ;! OpcodeC2 [1:0] $end
  $var wire 3 2! OpcodeC2Slli [2:0] $end
  $var wire 3 3! OpcodeC2Fldsp [2:0] $end
  $var wire 3 4! OpcodeC2Lwsp [2:0] $end
  $var wire 3 5! OpcodeC2Ldsp [2:0] $end
  $var wire 3 6! OpcodeC2JalrMvAdd [2:0] $end
  $var wire 3 7! OpcodeC2Fsdsp [2:0] $end
  $var wire 3 8! OpcodeC2Swsp [2:0] $end
  $var wire 3 9! OpcodeC2Sdsp [2:0] $end
  $var wire 32 <! INSTR_ADDR_MISALIGNED [31:0] $end
  $var wire 32 =! INSTR_ACCESS_FAULT [31:0] $end
  $var wire 32 >! ILLEGAL_INSTR [31:0] $end
  $var wire 32 ?! BREAKPOINT [31:0] $end
  $var wire 32 @! LD_ADDR_MISALIGNED [31:0] $end
  $var wire 32 A! LD_ACCESS_FAULT [31:0] $end
  $var wire 32 B! ST_ADDR_MISALIGNED [31:0] $end
  $var wire 32 C! ST_ACCESS_FAULT [31:0] $end
  $var wire 32 D! ENV_CALL_UMODE [31:0] $end
  $var wire 32 E! ENV_CALL_SMODE [31:0] $end
  $var wire 32 F! ENV_CALL_VSMODE [31:0] $end
  $var wire 32 G! ENV_CALL_MMODE [31:0] $end
  $var wire 32 H! INSTR_PAGE_FAULT [31:0] $end
  $var wire 32 I! LOAD_PAGE_FAULT [31:0] $end
  $var wire 32 J! STORE_PAGE_FAULT [31:0] $end
  $var wire 32 K! INSTR_GUEST_PAGE_FAULT [31:0] $end
  $var wire 32 L! LOAD_GUEST_PAGE_FAULT [31:0] $end
  $var wire 32 M! VIRTUAL_INSTRUCTION [31:0] $end
  $var wire 32 N! STORE_GUEST_PAGE_FAULT [31:0] $end
  $var wire 32 O! DEBUG_REQUEST [31:0] $end
  $var wire 32 P! IRQ_S_SOFT [31:0] $end
  $var wire 32 Q! IRQ_VS_SOFT [31:0] $end
  $var wire 32 R! IRQ_M_SOFT [31:0] $end
  $var wire 32 S! IRQ_S_TIMER [31:0] $end
  $var wire 32 T! IRQ_VS_TIMER [31:0] $end
  $var wire 32 U! IRQ_M_TIMER [31:0] $end
  $var wire 32 V! IRQ_S_EXT [31:0] $end
  $var wire 32 W! IRQ_VS_EXT [31:0] $end
  $var wire 32 X! IRQ_M_EXT [31:0] $end
  $var wire 32 Y! IRQ_HS_EXT [31:0] $end
  $var wire 32 >! MIP_SSIP [31:0] $end
  $var wire 32 @! MIP_VSSIP [31:0] $end
  $var wire 32 D! MIP_MSIP [31:0] $end
  $var wire 32 Z! MIP_STIP [31:0] $end
  $var wire 32 [! MIP_VSTIP [31:0] $end
  $var wire 32 \! MIP_MTIP [31:0] $end
  $var wire 32 ]! MIP_SEIP [31:0] $end
  $var wire 32 ^! MIP_VSEIP [31:0] $end
  $var wire 32 _! MIP_MEIP [31:0] $end
  $var wire 32 `! MIP_SGEIP [31:0] $end
  $var wire 32 a! READ_32_PSEUDOINSTRUCTION [31:0] $end
  $var wire 32 b! WRITE_32_PSEUDOINSTRUCTION [31:0] $end
  $var wire 32 c! READ_64_PSEUDOINSTRUCTION [31:0] $end
  $var wire 32 d! WRITE_64_PSEUDOINSTRUCTION [31:0] $end
  $var wire 64 e! SSTATUS_UIE [63:0] $end
  $var wire 64 g! SSTATUS_SIE [63:0] $end
  $var wire 64 i! SSTATUS_SPIE [63:0] $end
  $var wire 64 k! SSTATUS_SPP [63:0] $end
  $var wire 64 m! SSTATUS_FS [63:0] $end
  $var wire 64 o! SSTATUS_XS [63:0] $end
  $var wire 64 q! SSTATUS_SUM [63:0] $end
  $var wire 64 s! SSTATUS_MXR [63:0] $end
  $var wire 64 u! SSTATUS_UPIE [63:0] $end
  $var wire 64 w! SSTATUS_UXL [63:0] $end
  $var wire 64 i! HSTATUS_VSBE [63:0] $end
  $var wire 64 y! HSTATUS_GVA [63:0] $end
  $var wire 64 {! HSTATUS_SPV [63:0] $end
  $var wire 64 k! HSTATUS_SPVP [63:0] $end
  $var wire 64 }! HSTATUS_HU [63:0] $end
  $var wire 64 !" HSTATUS_VGEIN [63:0] $end
  $var wire 64 #" HSTATUS_VTVM [63:0] $end
  $var wire 64 %" HSTATUS_VTW [63:0] $end
  $var wire 64 '" HSTATUS_VTSR [63:0] $end
  $var wire 64 w! HSTATUS_VSXL [63:0] $end
  $var wire 64 e! MSTATUS_UIE [63:0] $end
  $var wire 64 g! MSTATUS_SIE [63:0] $end
  $var wire 64 )" MSTATUS_HIE [63:0] $end
  $var wire 64 +" MSTATUS_MIE [63:0] $end
  $var wire 64 u! MSTATUS_UPIE [63:0] $end
  $var wire 64 i! MSTATUS_SPIE [63:0] $end
  $var wire 64 y! MSTATUS_HPIE [63:0] $end
  $var wire 64 {! MSTATUS_MPIE [63:0] $end
  $var wire 64 k! MSTATUS_SPP [63:0] $end
  $var wire 64 -" MSTATUS_HPP [63:0] $end
  $var wire 64 /" MSTATUS_MPP [63:0] $end
  $var wire 64 m! MSTATUS_FS [63:0] $end
  $var wire 64 o! MSTATUS_XS [63:0] $end
  $var wire 64 1" MSTATUS_MPRV [63:0] $end
  $var wire 64 q! MSTATUS_SUM [63:0] $end
  $var wire 64 s! MSTATUS_MXR [63:0] $end
  $var wire 64 #" MSTATUS_TVM [63:0] $end
  $var wire 64 %" MSTATUS_TW [63:0] $end
  $var wire 64 '" MSTATUS_TSR [63:0] $end
  $var wire 64 e! MENVCFG_FIOM [63:0] $end
  $var wire 64 3" MENVCFG_CBIE [63:0] $end
  $var wire 64 y! MENVCFG_CBFE [63:0] $end
  $var wire 64 {! MENVCFG_CBZE [63:0] $end
  $var wire 64 5" MENVCFG_PBMTE [63:0] $end
  $var wire 64 7" MENVCFG_STCE [63:0] $end
  $var wire 3 6! F3_BEQ [2:0] $end
  $var wire 3 7! F3_BNE [2:0] $end
  $var wire 3 5! F3_BLT [2:0] $end
  $var wire 3 4! F3_BGE [2:0] $end
  $var wire 3 3! F3_BLTU [2:0] $end
  $var wire 3 2! F3_BGEU [2:0] $end
  $var wire 3 6! F3_LB [2:0] $end
  $var wire 3 7! F3_LH [2:0] $end
  $var wire 3 8! F3_LW [2:0] $end
  $var wire 3 2! F3_LBU [2:0] $end
  $var wire 3 3! F3_LHU [2:0] $end
  $var wire 3 2! F3_SB [2:0] $end
  $var wire 3 3! F3_SH [2:0] $end
  $var wire 3 4! F3_SW [2:0] $end
  $var wire 3 2! F3_ADDI [2:0] $end
  $var wire 3 4! F3_SLTI [2:0] $end
  $var wire 3 5! F3_SLTIU [2:0] $end
  $var wire 3 8! F3_XORI [2:0] $end
  $var wire 3 6! F3_ORI [2:0] $end
  $var wire 3 9! F3_ANDI [2:0] $end
  $var wire 3 3! F3_SLLI [2:0] $end
  $var wire 3 7! F3_SRLI [2:0] $end
  $var wire 3 7! F3_SRAI [2:0] $end
  $var wire 3 2! F3_JALR [2:0] $end
  $var wire 7 9" F7_SLLI [6:0] $end
  $var wire 7 9" F7_SRLI [6:0] $end
  $var wire 7 :" F7_SRAI [6:0] $end
  $var wire 3 2! F3_ADD [2:0] $end
  $var wire 3 2! F3_SUB [2:0] $end
  $var wire 3 3! F3_SLL [2:0] $end
  $var wire 3 4! F3_SLT [2:0] $end
  $var wire 3 5! F3_SLTU [2:0] $end
  $var wire 3 6! F3_XOR [2:0] $end
  $var wire 3 7! F3_SRL [2:0] $end
  $var wire 3 7! F3_SRA [2:0] $end
  $var wire 3 8! F3_OR [2:0] $end
  $var wire 3 9! F3_AND [2:0] $end
  $var wire 7 9" F7_ADD [6:0] $end
  $var wire 7 :" F7_SUB [6:0] $end
  $var wire 7 9" F7_SLL [6:0] $end
  $var wire 7 9" F7_SLT [6:0] $end
  $var wire 7 9" F7_SLTU [6:0] $end
  $var wire 7 9" F7_XOR [6:0] $end
  $var wire 7 9" F7_SRL [6:0] $end
  $var wire 7 :" F7_SRA [6:0] $end
  $var wire 7 9" F7_OR [6:0] $end
  $var wire 7 9" F7_AND [6:0] $end
 $upscope $end
 $scope module tb $end
  $var wire 32 d addr [31:0] $end
  $var wire 32 e data [31:0] $end
  $var wire 32 # pc [31:0] $end
  $var wire 32 f instr_ [31:0] $end
  $var wire 32 $ instr [31:0] $end
  $var wire 5 % reg_addr [4:0] $end
  $var wire 32 g reg_data [31:0] $end
  $var wire 32 & mem_addr [31:0] $end
  $var wire 32 a mem_data [31:0] $end
  $var wire 1 h update $end
  $var wire 1 ' mem_wrt $end
  $var wire 1 i clk $end
  $var wire 1 h rstn $end
  $var wire 32 j file_pointer [31:0] $end
  $scope module i_core_model $end
   $var wire 64 m DMemInitFile [63:0] $end
   $var wire 64 o IMemInitFile [63:0] $end
   $var wire 1 i clk_i $end
   $var wire 1 h rstn_i $end
   $var wire 32 d addr_i [31:0] $end
   $var wire 1 h update_o $end
   $var wire 32 e data_o [31:0] $end
   $var wire 32 # pc_o [31:0] $end
   $var wire 32 f instr_o [31:0] $end
   $var wire 5 % reg_addr_o [4:0] $end
   $var wire 32 g reg_data_o [31:0] $end
   $var wire 32 & mem_addr_o [31:0] $end
   $var wire 32 a mem_data_o [31:0] $end
   $var wire 1 ' mem_wrt_o $end
   $var wire 32 # pc_reg [31:0] $end
   $var wire 32 ( next_pc [31:0] $end
   $var wire 32 ) instr_w [31:0] $end
   $var wire 5 * rs1_addr_w [4:0] $end
   $var wire 5 + rs2_addr_w [4:0] $end
   $var wire 5 , rd_addr_w [4:0] $end
   $var wire 32 - imm_w [31:0] $end
   $var wire 1 . reg_we_w $end
   $var wire 1 / alu_src_w $end
   $var wire 1 0 pc_to_alu_w $end
   $var wire 1 ' mem_we_w $end
   $var wire 1 1 branch_w $end
   $var wire 1 2 jump_w $end
   $var wire 1 3 jalr_w $end
   $var wire 2 4 wb_sel_w [1:0] $end
   $var wire 4 5 alu_ctrl_w [3:0] $end
   $var wire 3 6 funct3_w [2:0] $end
   $var wire 3 7 unused_branch_type [2:0] $end
   $var wire 32 8 rs1_data_w [31:0] $end
   $var wire 32 9 rs2_data_w [31:0] $end
   $var wire 32 k wb_data_w [31:0] $end
   $var wire 32 : alu_a_w [31:0] $end
   $var wire 32 ; alu_b_w [31:0] $end
   $var wire 32 & alu_res_w [31:0] $end
   $var wire 1 < alu_zero_w $end
   $var wire 1 = branch_taken $end
   $var wire 32 b mem_read_word [31:0] $end
   $var wire 32 c load_data_w [31:0] $end
   $var wire 32 a mem_write_word [31:0] $end
   $scope module u_alu $end
    $var wire 32 : a_i [31:0] $end
    $var wire 32 ; b_i [31:0] $end
    $var wire 4 5 alu_ctrl_i [3:0] $end
    $var wire 32 & res_o [31:0] $end
    $var wire 1 < zero_o $end
   $upscope $end
   $scope module u_decoder $end
    $var wire 1 i clk_i $end
    $var wire 32 ) instr_i [31:0] $end
    $var wire 5 * rs1_addr_o [4:0] $end
    $var wire 5 + rs2_addr_o [4:0] $end
    $var wire 5 , rd_addr_o [4:0] $end
    $var wire 32 - imm_o [31:0] $end
    $var wire 1 . reg_we_o $end
    $var wire 1 / alu_src_o $end
    $var wire 1 0 pc_to_alu_o $end
    $var wire 4 5 alu_ctrl_o [3:0] $end
    $var wire 1 ' mem_we_o $end
    $var wire 2 4 wb_sel_o [1:0] $end
    $var wire 1 1 branch_o $end
    $var wire 3 7 branch_type_o [2:0] $end
    $var wire 1 2 jump_o $end
    $var wire 1 3 jalr_o $end
    $var wire 7 > opcode [6:0] $end
    $var wire 3 6 funct3 [2:0] $end
   $upscope $end
   $scope module u_regfile $end
    $var wire 1 i clk_i $end
    $var wire 1 h rstn_i $end
    $var wire 1 ? we_i $end
    $var wire 5 * rs1_addr_i [4:0] $end
    $var wire 5 + rs2_addr_i [4:0] $end
    $var wire 5 , rd_addr_i [4:0] $end
    $var wire 32 k rd_data_i [31:0] $end
    $var wire 32 8 rs1_data_o [31:0] $end
    $var wire 32 9 rs2_data_o [31:0] $end
    $var wire 32 @ registers[0] [31:0] $end
    $var wire 32 A registers[1] [31:0] $end
    $var wire 32 B registers[2] [31:0] $end
    $var wire 32 C registers[3] [31:0] $end
    $var wire 32 D registers[4] [31:0] $end
    $var wire 32 E registers[5] [31:0] $end
    $var wire 32 F registers[6] [31:0] $end
    $var wire 32 G registers[7] [31:0] $end
    $var wire 32 H registers[8] [31:0] $end
    $var wire 32 I registers[9] [31:0] $end
    $var wire 32 J registers[10] [31:0] $end
    $var wire 32 K registers[11] [31:0] $end
    $var wire 32 L registers[12] [31:0] $end
    $var wire 32 M registers[13] [31:0] $end
    $var wire 32 N registers[14] [31:0] $end
    $var wire 32 O registers[15] [31:0] $end
    $var wire 32 P registers[16] [31:0] $end
    $var wire 32 Q registers[17] [31:0] $end
    $var wire 32 R registers[18] [31:0] $end
    $var wire 32 S registers[19] [31:0] $end
    $var wire 32 T registers[20] [31:0] $end
    $var wire 32 U registers[21] [31:0] $end
    $var wire 32 V registers[22] [31:0] $end
    $var wire 32 W registers[23] [31:0] $end
    $var wire 32 X registers[24] [31:0] $end
    $var wire 32 Y registers[25] [31:0] $end
    $var wire 32 Z registers[26] [31:0] $end
    $var wire 32 [ registers[27] [31:0] $end
    $var wire 32 \ registers[28] [31:0] $end
    $var wire 32 ] registers[29] [31:0] $end
    $var wire 32 ^ registers[30] [31:0] $end
    $var wire 32 _ registers[31] [31:0] $end
    $scope module unnamedblk1 $end
     $var wire 32 ` i [31:0] $end
    $upscope $end
   $upscope $end
  $upscope $end
  $scope module i_descrambler $end
   $var wire 32 f instruction_i [31:0] $end
   $var wire 32 $ instruction_o [31:0] $end
  $upscope $end
  $scope module unnamedblk1 $end
   $var wire 32 l i [31:0] $end
  $upscope $end
 $upscope $end
$enddefinitions $end


#0
b00000000000000000000000000000000 #
b00000000010100000000000100010011 $
b00010 %
b00000000000000000000000000000101 &
0'
b00000000000000000000000000000100 (
b00000000010111001000000000000010 )
b00000 *
b00101 +
b00010 ,
b00000000000000000000000000000101 -
1.
1/
00
01
02
03
b00 4
b0000 5
b000 6
b000 7
b00000000000000000000000000000000 8
b00000000000000000000000000000000 9
b00000000000000000000000000000000 :
b00000000000000000000000000000101 ;
0<
0=
b1100100 >
1?
b00000000000000000000000000000000 @
b00000000000000000000000000000000 A
b00000000000000000000000000000000 B
b00000000000000000000000000000000 C
b00000000000000000000000000000000 D
b00000000000000000000000000000000 E
b00000000000000000000000000000000 F
b00000000000000000000000000000000 G
b00000000000000000000000000000000 H
b00000000000000000000000000000000 I
b00000000000000000000000000000000 J
b00000000000000000000000000000000 K
b00000000000000000000000000000000 L
b00000000000000000000000000000000 M
b00000000000000000000000000000000 N
b00000000000000000000000000000000 O
b00000000000000000000000000000000 P
b00000000000000000000000000000000 Q
b00000000000000000000000000000000 R
b00000000000000000000000000000000 S
b00000000000000000000000000000000 T
b00000000000000000000000000000000 U
b00000000000000000000000000000000 V
b00000000000000000000000000000000 W
b00000000000000000000000000000000 X
b00000000000000000000000000000000 Y
b00000000000000000000000000000000 Z
b00000000000000000000000000000000 [
b00000000000000000000000000000000 \
b00000000000000000000000000000000 ]
b00000000000000000000000000000000 ^
b00000000000000000000000000000000 _
b00000000000000000000000000000000 `
b00000000000000000000000000000000 a
b00000000000000000000000000000000 b
b00000000000000000000000000000000 c
b00000000000000000000000000000000 d
b00000000000000000000000000000000 e
b00000000010111001000000000000010 f
b00000000000000000000000000000101 g
0h
0i
b10000000000000000000000000101100 j
b00000000000000000000000000000101 k
b00000000000000000000000000000000 l
b0110010001101101011001010110110100101110011011010110010101101101 m
b0110100101101101011001010110110100101110011011010110010101101101 o
b00000000000000000000000000100000 q
b00000000000000000000000000100010 r
b1100000 s
b0000111 t
b0001011 u
b0001111 v
b1100100 w
b1110100 x
b0011011 y
b1100001 z
b0100111 {
b0101011 |
b0101111 }
b1110001 ~
b1110101 !!
b0111011 "!
b1000011 #!
b1000111 $!
b1001011 %!
b1001111 &!
b1010011 '!
b1010111 (!
b1011011 )!
b1100011 *!
b1100111 +!
b1101011 ,!
b1101111 -!
b1110011 .!
b1110111 /!
b1111011 0!
b00 1!
b000 2!
b001 3!
b010 4!
b011 5!
b100 6!
b101 7!
b110 8!
b111 9!
b01 :!
b10 ;!
b00000000000000000000000000000000 <!
b00000000000000000000000000000001 =!
b00000000000000000000000000000010 >!
b00000000000000000000000000000011 ?!
b00000000000000000000000000000100 @!
b00000000000000000000000000000101 A!
b00000000000000000000000000000110 B!
b00000000000000000000000000000111 C!
b00000000000000000000000000001000 D!
b00000000000000000000000000001001 E!
b00000000000000000000000000001010 F!
b00000000000000000000000000001011 G!
b00000000000000000000000000001100 H!
b00000000000000000000000000001101 I!
b00000000000000000000000000001111 J!
b00000000000000000000000000010100 K!
b00000000000000000000000000010101 L!
b00000000000000000000000000010110 M!
b00000000000000000000000000010111 N!
b00000000000000000000000000011000 O!
b00000000000000000000000000000001 P!
b00000000000000000000000000000010 Q!
b00000000000000000000000000000011 R!
b00000000000000000000000000000101 S!
b00000000000000000000000000000110 T!
b00000000000000000000000000000111 U!
b00000000000000000000000000001001 V!
b00000000000000000000000000001010 W!
b00000000000000000000000000001011 X!
b00000000000000000000000000001100 Y!
b00000000000000000000000000100000 Z!
b00000000000000000000000001000000 [!
b00000000000000000000000010000000 \!
b00000000000000000000001000000000 ]!
b00000000000000000000010000000000 ^!
b00000000000000000000100000000000 _!
b00000000000000000001000000000000 `!
b00000000000000000010000000000000 a!
b00000000000000000010000000100000 b!
b00000000000000000011000000000000 c!
b00000000000000000011000000100000 d!
b0000000000000000000000000000000000000000000000000000000000000001 e!
b0000000000000000000000000000000000000000000000000000000000000010 g!
b0000000000000000000000000000000000000000000000000000000000100000 i!
b0000000000000000000000000000000000000000000000000000000100000000 k!
b0000000000000000000000000000000000000000000000000110000000000000 m!
b0000000000000000000000000000000000000000000000011000000000000000 o!
b0000000000000000000000000000000000000000000001000000000000000000 q!
b0000000000000000000000000000000000000000000010000000000000000000 s!
b0000000000000000000000000000000000000000000000000000000000010000 u!
b0000000000000000000000000000001100000000000000000000000000000000 w!
b0000000000000000000000000000000000000000000000000000000001000000 y!
b0000000000000000000000000000000000000000000000000000000010000000 {!
b0000000000000000000000000000000000000000000000000000001000000000 }!
b0000000000000000000000000000000000000000000000111111000000000000 !"
b0000000000000000000000000000000000000000000100000000000000000000 #"
b0000000000000000000000000000000000000000001000000000000000000000 %"
b0000000000000000000000000000000000000000010000000000000000000000 '"
b0000000000000000000000000000000000000000000000000000000000000100 )"
b0000000000000000000000000000000000000000000000000000000000001000 +"
b0000000000000000000000000000000000000000000000000000011000000000 -"
b0000000000000000000000000000000000000000000000000001100000000000 /"
b0000000000000000000000000000000000000000000000100000000000000000 1"
b0000000000000000000000000000000000000000000000000000000000110000 3"
b0100000000000000000000000000000000000000000000000000000000000000 5"
b1000000000000000000000000000000000000000000000000000000000000000 7"
b0000000 9"
b0000010 :"
#1000
b10000000000000000000000000000000 #
b10000000000000000000000000000100 (
b00000000000000000000000000100000 `
1i
#2000
0i
#3000
1i
#4000
1h
0i
#5000
b10000000000000000000000000000100 #
b10000000000000000001000110110111 $
b00011 %
b00000000000000000000000000000000 &
b10000000000000000000000000001000 (
b10000000000011101010000000100011 )
b00000 +
b00011 ,
b10000000000000000001000000000000 -
0/
b11 4
b001 6
b00000000000000000000000000000000 ;
1<
b1110101 >
b00000000000000000000000000000101 B
b10000000000011101010000000100011 f
b10000000000000000001000000000000 g
1i
b10000000000000000001000000000000 k
#6000
0i
#7000
b10000000000000000000000000001000 #
b11111111011100011000001110010011 $
b00111 %
b10000000000000000000111111110111 &
b10000000000000000000000000001100 (
b11111111011111001000001100000111 )
b00011 *
b10111 +
b00111 ,
b11111111111111111111111111110111 -
1/
b00 4
b000 6
b10000000000000000001000000000000 8
b10000000000000000001000000000000 :
b11111111111111111111111111110111 ;
0<
b1100100 >
b10000000000000000001000000000000 C
b11111111011111001000001100000111 f
b10000000000000000000111111110111 g
1i
b10000000000000000000111111110111 k
#8000
0i
#9000
b10000000000000000000000000001100 #
b00000000001000111110001000110011 $
b00100 %
b10000000000000000000000000010000 (
b00000000001011100010011111000100 )
b00111 *
b00010 +
b00100 ,
b00000000000000000000000000000000 -
0/
b0110 5
b110 6
b10000000000000000000111111110111 8
b00000000000000000000000000000101 9
b10000000000000000000111111110111 :
b00000000000000000000000000000101 ;
b1110001 >
b10000000000000000000111111110111 G
b00000000001011100010011111000100 f
1i
#10000
0i
#11000
b10000000000000000000000000010000 #
b00000000010000011111001010110011 $
b00101 %
b10000000000000000000000000000000 &
b10000000000000000000000000010100 (
b00000000010011100010001111100101 )
b00011 *
b00100 +
b00101 ,
b0111 5
b111 6
b10000000000000000001000000000000 8
b10000000000000000000111111110111 9
b10000000000000000001000000000000 :
b10000000000000000000111111110111 ;
b10000000000000000000111111110111 D
b00000000010011100010001111100101 f
b10000000000000000000000000000000 g
1i
b10000000000000000000000000000000 k
#12000
0i
#13000
b10000000000000000000000000010100 #
b00000000010000101000001010110011 $
b00000000000000000000111111110111 &
b10000000000000000000000000011000 (
b00000000010011100010010100000101 )
b00101 *
b0000 5
b000 6
b10000000000000000000000000000000 8
b10000000000000000000000000000000 :
b10000000000000000000000000000000 E
b00000000010011100010010100000101 f
b00000000000000000000111111110111 g
1i
b00000000000000000000111111110111 k
#14000
0i
#15000
b10000000000000000000000000011000 #
b00000010011100101000100001100011 $
b00000 %
b10000000000000000000000000000000 &
b10000000000000000000000000011100 (
b00000010011111000110010110010000 )
b00111 +
b10000 ,
b00000000000000000000000000110000 -
0.
11
b1000 5
b100 6
b100 7
b00000000000000000000111111110111 8
b00000000000000000000111111110111 :
b1100011 >
0?
b00000000000000000000111111110111 E
b00000010011111000110010110010000 f
b00000000000000000000000000000000 g
1i
b10000000000000000000000000000000 k
#16000
0i
#17000
b10000000000000000000000000011100 #
b00000000010000011010001000110011 $
b00100 %
b00000000000000000000000000000000 &
b10000000000000000000000000100000 (
b00000000010011100010001101000100 )
b00011 *
b00100 +
b00100 ,
b00000000000000000000000000000000 -
1.
01
b0010 5
b010 6
b000 7
b10000000000000000001000000000000 8
b10000000000000000001000000000000 :
1<
b1110001 >
1?
b00000000010011100010001101000100 f
1i
b00000000000000000000000000000000 k
#18000
0i
#19000
b10000000000000000000000000100000 #
b00000000000000100000010001100011 $
b00000 %
b10000000000000000000000000101000 (
b00000000000011000110010010001000 )
b00100 *
b00000 +
b01000 ,
b00000000000000000000000000001000 -
0.
11
b1000 5
b100 6
b100 7
b00000000000000000000000000000000 8
b00000000000000000000000000000000 9
b00000000000000000000000000000000 :
b00000000000000000000000000000000 ;
1=
b1100011 >
0?
b00000000000000000000000000000000 D
b00000000000011000110010010001000 f
1i
#20000
0i
#21000
b10000000000000000000000000101000 #
b00000000001000111010001000110011 $
b00100 %
b00000000000000000000000000000001 &
b10000000000000000000000000101100 (
b00000000001011100010011101000100 )
b00111 *
b00010 +
b00100 ,
b00000000000000000000000000000000 -
1.
01
b0010 5
b010 6
b000 7
b10000000000000000000111111110111 8
b00000000000000000000000000000101 9
b10000000000000000000111111110111 :
b00000000000000000000000000000101 ;
0<
0=
b1110001 >
1?
b00000000001011100010011101000100 f
b00000000000000000000000000000001 g
1i
b00000000000000000000000000000001 k
#22000
0i
#23000
b10000000000000000000000000101100 #
b00000000010100100000001110110011 $
b00111 %
b00000000000000000000111111111000 &
b10000000000000000000000000110000 (
b00000000010111100010010000000111 )
b00100 *
b00101 +
b00111 ,
b0000 5
b000 6
b00000000000000000000000000000001 8
b00000000000000000000111111110111 9
b00000000000000000000000000000001 :
b00000000000000000000111111110111 ;
b00000000000000000000000000000001 D
b00000000010111100010010000000111 f
b00000000000000000000111111111000 g
1i
b00000000000000000000111111111000 k
#24000
0i
#25000
b10000000000000000000000000110000 #
b01000000001000111000001110110011 $
b00000000000000000000111111110011 &
b10000000000000000000000000110100 (
b00000100001011100010011100000111 )
b00111 *
b00010 +
b1000 5
b00000000000000000000111111111000 8
b00000000000000000000000000000101 9
b00000000000000000000111111111000 :
b00000000000000000000000000000101 ;
b00000000000000000000111111111000 G
b00000100001011100010011100000111 f
b00000000000000000000111111110011 g
1i
b00000000000000000000111111110011 k
#26000
0i
#27000
b10000000000000000000000000110100 #
b00000100011100011010101000100011 $
b00000 %
b10000000000000000001000001010100 &
1'
b10000000000000000000000000111000 (
b00000100011111000010001101010100 )
b00011 *
b00111 +
b10100 ,
b00000000000000000000000001010100 -
0.
1/
b0000 5
b010 6
b10000000000000000001000000000000 8
b00000000000000000000111111110011 9
b10000000000000000001000000000000 :
b00000000000000000000000001010100 ;
b1100001 >
0?
b00000000000000000000111111110011 G
b00000000000000000000111111110011 a
b00000100011111000010001101010100 f
b00000000000000000000000000000000 g
1i
b10000000000000000001000001010100 k
#28000
0i
#29000
b10000000000000000000000000111000 #
b00000101010000011010000100000011 $
b00010 %
0'
b10000000000000000000000000111100 (
b00000101010011000000001111000010 )
b10100 +
b00010 ,
1.
b01 4
b110 6
b00000000000000000000000000000000 9
b1100000 >
1?
b00000000000000000000111111110011 b
b00000000000000000000111111110011 c
b00000101010011000000001111000010 f
b00000000000000000000111111110011 g
1i
b00000000000000000000111111110011 k
#30000
0i
#31000
b10000000000000000000000000111100 #
b00000000010100010000010010110011 $
b01001 %
b00000000000000000001111111101010 &
b10000000000000000000000001000000 (
b00000000010111100010001000001001 )
b00010 *
b00101 +
b01001 ,
b00000000000000000000000000000000 -
0/
b00 4
b000 6
b00000000000000000000111111110011 8
b00000000000000000000111111110111 9
b00000000000000000000111111110011 :
b00000000000000000000111111110111 ;
b1110001 >
b00000000000000000000111111110011 B
b00000000000000000000000000000000 a
b00000000000000000000000000000000 b
b00000000000000000000000000000000 c
b00000000010111100010001000001001 f
b00000000000000000001111111101010 g
1i
b00000000000000000001111111101010 k
#32000
0i
#33000
b10000000000000000000000001000000 #
b00000000100000000000000111101111 $
b00011 %
b00000000000000000000000000000000 &
b10000000000000000000000001001000 (
b00000000100011011110000000000011 )
b00000 *
b01000 +
b00011 ,
b00000000000000000000000000001000 -
12
b10 4
b00000000000000000000000000000000 8
b00000000000000000000000000000000 9
b00000000000000000000000000000000 :
b00000000000000000000000000000000 ;
1<
b1101111 >
b00000000000000000001111111101010 I
b00000000100011011110000000000011 f
b10000000000000000000000001000100 g
1i
b10000000000000000000000001000100 k
#34000
0i
#35000
b10000000000000000000000001001000 #
b00000000100100010000000100110011 $
b00010 %
b00000000000000000010111111011101 &
b10000000000000000000000001001100 (
b00000000100111100010001000000010 )
b00010 *
b01001 +
b00010 ,
b00000000000000000000000000000000 -
02
b00 4
b00000000000000000000111111110011 8
b00000000000000000001111111101010 9
b00000000000000000000111111110011 :
b00000000000000000001111111101010 ;
0<
b1110001 >
b10000000000000000000000001000100 C
b00000000100111100010001000000010 f
b00000000000000000010111111011101 g
1i
b00000000000000000010111111011101 k
#36000
0i
